%YAML 1.1
%TAG !u! tag:unity3d.com,2011:
--- !u!114 &11400000
MonoBehaviour:
  m_ObjectHideFlags: 0
  m_CorrespondingSourceObject: {fileID: 0}
  m_PrefabInstance: {fileID: 0}
  m_PrefabAsset: {fileID: 0}
  m_GameObject: {fileID: 0}
  m_Enabled: 1
  m_EditorHideFlags: 0
  m_Script: {fileID: 11500000, guid: 97e1365e0338409686494c503725ba90, type: 3}
  m_Name: ArrowsVector2
  m_EditorClassIdentifier: 
  _sensitivityX: 1
  _sensitivityY: 1
  _normalize: 1
  _positiveX: 20
  _negativeX: 19
  _positiveY: 21
  _negativeY: 22
