%YAML 1.1
%TAG !u! tag:unity3d.com,2011:
--- !u!114 &11400000
MonoBehaviour:
  m_ObjectHideFlags: 0
  m_CorrespondingSourceObject: {fileID: 0}
  m_PrefabInstance: {fileID: 0}
  m_PrefabAsset: {fileID: 0}
  m_GameObject: {fileID: 0}
  m_Enabled: 1
  m_EditorHideFlags: 0
  m_Script: {fileID: 11500000, guid: 2da5799e1442473286597bdc26e1349d, type: 3}
  m_Name: PoseStateDataStand
  m_EditorClassIdentifier: 
  isCrouchState: 0
  isJumpAllowed: 0
  colliderHeight: 1.72
