%YAML 1.1
%TAG !u! tag:unity3d.com,2011:
--- !u!114 &11400000
MonoBehaviour:
  m_ObjectHideFlags: 0
  m_CorrespondingSourceObject: {fileID: 0}
  m_PrefabInstance: {fileID: 0}
  m_PrefabAsset: {fileID: 0}
  m_GameObject: {fileID: 0}
  m_Enabled: 1
  m_EditorHideFlags: 0
  m_Script: {fileID: 11500000, guid: 16a4bdd494364740b1267c77d5b1c635, type: 3}
  m_Name: CharacterMassSettings
  m_EditorClassIdentifier: 
  gravityForce: 15
  airInertialFactor: 0.001
  groundInertialFactor: 20
